<svg width="55" height="50" viewBox="0 0 55 50" fill="none" xmlns="http://www.w3.org/2000/svg">
<path d="M54.3622 35.7737C52.2241 35.3819 50.6122 36.7858 48.5935 34.6937C48.066 34.1474 47.3041 34.4554 47.0624 35.1207C45.3298 39.8959 41.7258 37.5889 40.0744 34.2442C39.7544 33.5968 38.8486 33.6529 38.5155 34.2442C37.3741 37.1931 35.1762 37.5562 31.9213 35.3338C31.4043 34.8562 30.5563 35.0168 30.3618 35.7685C28.9449 41.2502 23.993 39.7442 22.4674 35.2397C22.3906 35.0128 22.2254 34.9028 22.0538 34.883C21.7067 34.4243 20.9205 34.2868 20.6496 34.9302C18.6981 39.5626 15.076 38.8535 12.8214 34.9364C12.4145 34.2294 11.5744 34.4745 11.3075 35.1454C9.41151 39.911 3.8869 39.8016 3.98527 34.0728C3.99607 33.4384 3.09666 33.3138 2.94457 33.9242C1.16502 41.0637 9.4372 42.3018 12.3027 37.0611C15.2625 40.6154 19.7009 41.3449 21.8176 36.5614C23.6234 41.8076 29.5226 42.8395 31.7152 37.6194C34.4995 39.5839 37.1519 39.2753 39.2444 36.4843C41.7964 40.3321 46.3437 41.7497 48.3623 37.0016C50.2148 38.3254 51.4438 37.3993 54.1243 37.6262C55.1247 37.7113 55.3533 35.9556 54.3622 35.7737Z" fill="#00B2A0"/>
<path d="M51.0125 43.4666C50.1738 44.9217 49.8839 46.2258 48.0875 46.937C45.8761 47.8132 43.6751 45.7226 42.5853 44.0085C42.2093 43.4169 41.2974 43.3032 40.9462 44.0085C39.4069 47.1004 35.9978 46.3454 34.5432 43.3614C34.1856 42.6274 32.9761 42.7584 32.8275 43.5982C32.0102 48.2238 28.3401 48.7134 25.8822 45.3607C26.1504 44.458 24.751 43.8436 24.3694 44.7272C22.3061 49.5066 18.2779 48.9727 15.9399 44.7074C15.5341 43.9672 14.6251 44.2268 14.3629 44.9251C12.4628 49.9885 9.50331 47.5798 7.84256 44.0945C7.51912 43.4154 6.59664 43.6506 6.40164 44.2934C5.49406 47.2869 3.99883 47.8459 1.47984 48.6203C1.00547 48.7664 1.07874 49.6358 1.60041 49.5624C4.48663 49.1561 6.06301 48.6138 7.24267 46.3439C9.6662 50.3406 13.0496 51.1569 15.3198 46.9515C18.2636 50.8431 22.9924 51.2867 25.3354 46.6568C27.9379 50.3955 32.3024 50.2114 34.0501 46.1373C36.3049 48.9462 39.5867 49.3408 41.8573 46.1974C45.2363 49.7853 52.1469 50.5884 52.3933 43.8624C52.4239 43.0602 51.3835 42.8225 51.0125 43.4666Z" fill="#00B2A0"/>
<path d="M15.5217 7.50507C14.956 7.67894 14.7329 8.12751 14.7502 8.58039C10.7415 9.20592 8.14632 13.383 7.83659 17.5844C7.41301 23.3329 12.0365 26.7096 17.0493 26.2808C22.1749 25.8427 25.5092 21.0025 25.3586 15.8006C25.208 10.605 20.5474 5.95774 15.5217 7.50507ZM16.3563 23.6529C12.6772 23.9716 10.2972 21.3478 10.3675 17.5844C10.4414 13.6401 13.3031 11.039 16.6205 9.99916C16.6812 9.98005 16.725 9.94737 16.7743 9.91839C20.0083 10.4511 22.454 11.7506 22.7976 15.8C23.1543 20.0005 20.2339 23.3162 16.3563 23.6529Z" fill="#00B2A0"/>
<path d="M10.8569 7.3313C10.2535 6.63795 9.58504 6.02876 8.90048 5.42759C8.22176 4.83135 7.50188 3.67771 6.54496 3.77205C6.03819 3.822 5.69489 4.16143 5.65957 4.70711C5.59242 5.74266 6.55927 6.25135 7.26251 6.77946C8.06646 7.38279 8.90165 7.92261 9.6478 8.60856C10.4757 9.37005 11.6086 8.19483 10.8569 7.3313Z" fill="#00B2A0"/>
<path d="M5.31059 10.4497C5.63229 10.4907 5.34796 10.4414 5.26301 10.4133C5.13252 10.3699 5.00466 10.3178 4.87709 10.266C4.73258 10.2077 4.58954 10.1448 4.44679 10.0819C4.43716 10.0776 4.43191 10.0755 4.4176 10.0687C4.28157 9.79275 4.04774 9.57047 3.74677 9.47089C3.20934 9.29239 2.39196 8.86602 1.81103 9.05871C1.48262 9.16784 1.13845 9.45486 1.07452 9.83653C1.07452 9.83653 1.07422 9.83807 1.07422 9.83869C1.0135 10.2003 1.03978 10.6708 1.34542 10.9223C1.51561 11.0617 1.7147 11.1603 1.92226 11.2454C1.75411 11.2448 1.88985 11.2531 2.04194 11.2904C2.14966 11.3296 2.25592 11.3697 2.36685 11.4008C2.63425 11.4958 2.90136 11.5923 3.1673 11.6906C3.31998 11.7476 3.47732 11.7526 3.62941 11.7236C4.17618 11.8771 4.77491 12.051 5.31088 12.0165C6.28532 11.9536 6.24357 10.569 5.31059 10.4497Z" fill="#00B2A0"/>
<path d="M3.64003 19.2588C3.23076 19.6211 2.75317 19.905 2.28785 20.1772C2.04731 20.3181 1.79859 20.4639 1.54082 20.5666C1.3864 20.6279 1.1406 20.5765 1.48039 20.6421C1.31166 20.6098 1.15169 20.6064 0.983835 20.5873C-0.431108 20.426 -0.302371 23.1242 1.25737 22.7222C1.83187 22.5742 2.41892 21.9952 2.90731 21.6244C3.47393 21.1943 4.03967 20.7241 4.50674 20.1741C5.04067 19.5458 4.24168 18.7258 3.64003 19.2588Z" fill="#00B2A0"/>
<path d="M7.24628 24.6062C6.76695 25.3831 6.32994 26.1883 5.87396 26.9803C5.37974 27.8383 4.54251 28.478 4.43274 29.5047C4.36268 30.1601 5.04228 30.4847 5.54409 30.3987C6.57019 30.223 7.07084 28.8437 7.44596 27.9502C7.83305 27.0284 8.07096 26.0616 8.38098 25.1109C8.61919 24.3787 7.61498 24.0081 7.24628 24.6062Z" fill="#00B2A0"/>
<path d="M16.9432 27.3984C16.8422 26.8499 16.0391 26.8762 15.9214 27.3984C15.6126 28.7712 15.2509 30.1323 14.9476 31.5064C14.8743 31.8381 14.9374 32.222 15.1864 32.4606C15.1455 32.4029 15.1502 32.4143 15.2001 32.4942C15.497 33.0066 16.1208 32.948 16.4285 32.4942C16.1474 32.9085 16.6276 32.2935 16.6448 32.262C16.7581 32.0576 16.7677 31.8431 16.7797 31.6137C16.8048 31.1389 16.8576 30.6654 16.9005 30.1922C16.9849 29.2694 17.1125 28.3168 16.9432 27.3984Z" fill="#00B2A0"/>
<path d="M27.6084 28.2096C26.8742 27.0973 25.7083 26.3833 25.0409 25.2346C24.5841 24.4478 23.5378 25.1332 23.8908 25.9446C24.1967 26.6478 24.6641 27.2317 25.1466 27.8073C25.3769 28.082 25.6128 28.3502 25.8154 28.6486C26.0918 29.0559 26.2054 29.5134 26.7443 29.5926C27.0543 29.6383 27.4081 29.5735 27.5646 29.2396C27.5792 29.2088 27.5938 29.178 27.6081 29.1468C27.7418 28.8626 27.7932 28.4899 27.6084 28.2096Z" fill="#00B2A0"/>
<path d="M31.8792 19.9104C30.6435 19.9792 29.4075 20.0452 28.1718 20.1102C27.0599 20.1688 27.0599 21.8736 28.1718 21.9325C29.4078 21.9979 30.6435 22.0639 31.8792 22.132C33.2361 22.2075 33.2361 19.8355 31.8792 19.9104Z" fill="#00B2A0"/>
<path d="M31.8798 7.09895C30.7588 7.07429 29.8526 8.49614 29.1809 9.32206C28.459 10.2093 27.8247 11.1709 27.0887 12.0464C26.5265 12.7154 27.3932 13.6419 28.02 13.0299C28.762 12.3048 29.4358 11.5079 30.1481 10.751C30.5503 10.3237 30.9666 9.89332 31.4232 9.53046C31.9846 9.08498 32.4256 8.94039 32.6752 8.20141C32.8606 7.65295 32.3836 7.11005 31.8798 7.09895Z" fill="#00B2A0"/>
<path d="M26.4942 1.29629C25.8307 1.74579 25.3881 2.47583 24.9322 3.14328C24.4006 3.92142 23.8953 4.70325 23.2805 5.41294C22.5842 6.21666 23.6673 7.37307 24.4149 6.61097C24.9952 6.01905 25.509 5.37379 26.0126 4.70911C26.5532 3.99571 27.2503 3.34244 27.6952 2.56431C28.1418 1.78371 27.2427 0.78946 26.4942 1.29629Z" fill="#00B2A0"/>
<path d="M18.2042 0.226596C17.8807 -0.075532 17.4575 -0.075532 17.134 0.226596C16.4991 0.819753 16.7919 1.85531 16.8447 2.64485C16.9054 3.55062 16.9705 4.45546 17.0485 5.36C17.1212 6.20349 18.217 6.20349 18.2897 5.36C18.3677 4.45515 18.4328 3.55093 18.4935 2.64485C18.5463 1.85562 18.8391 0.819445 18.2042 0.226596Z" fill="#00B2A0"/>
</svg>
